{
    "latex-utilities.liveReformat.enabled": true,
    "latex-utilities.countWord.docker.enabled": true,
    "latex-workshop.latex.autoBuild.run": "onSave",
    "latex-workshop.latex.outDir": "%DIR%/build",
    "latex-workshop.intellisense.unimathsymbols.enabled": true,
    "latex-workshop.bibtex-format.trailingComma": true,
    "latex-workshop.linting.chktex.enabled": true,
    "latex-workshop.view.pdf.viewer": "tab",
    "latex-workshop.docker.enabled": true,
    "latex-workshop.docker.image.latex": "nukopy/ubuntu-texlive-ja:latest",
    "latex-workshop.hover.preview.cursor.color": "yellow",
    "latex-workshop.intellisense.update.aggressive.enabled": true,
    "latex-workshop.intellisense.update.delay": 300,
    "latex-workshop.latex.clean.subfolder.enabled": true,
    "latex-workshop.synctex.afterBuild.enabled": true,
    "latex-workshop.view.pdf.invert": 1,
    "editor.suggest.snippetsPreventQuickSuggestions": false,
    "editor.formatOnSave": true,
    "spellright.documentTypes": ["markdown", "latex", "plaintext"],
    "spellright.language": ["en"],
    "[latex]": {
        "editor.defaultFormatter": "James-Yu.latex-workshop"
    },
    "conceal.substitutions": [
        {
            "language": "latex",
            "substitutions": [
                {
                    "ugly": "\\$",
                    "pretty": "\null"
                },
                {
                    "ugly": "\\\\\\(",
                    "pretty": "\null"
                },
                {
                    "ugly": "\\\\\\)",
                    "pretty": "\null"
                },
                {
                    "ugly": "\\\\\\[",
                    "pretty": "\null"
                },
                {
                    "ugly": "\\\\]",
                    "pretty": "\null"
                },
                {
                    "ugly": "\\\\leq",
                    "pretty": "≤",
                    "post": "\\b|_"
                },
                {
                    "ugly": "\\\\geq",
                    "pretty": "≥",
                    "post": "\\b|_"
                },
                {
                    "ugly": "\\\\cdots",
                    "pretty": "⋯",
                    "post": "\\b|_"
                },
                {
                    "ugly": "\\\\vdots",
                    "pretty": "⋮",
                    "post": "\\b|_"
                },
                {
                    "ugly": "\\\\ldots",
                    "pretty": "…",
                    "post": "\\b|_"
                },
                {
                    "ugly": "\\\\top",
                    "pretty": "⊤",
                    "post": "\\b|_"
                },
                {
                    "ugly": "\\\\b|_ot",
                    "pretty": "⊥",
                    "post": "\\b|_"
                },
                {
                    "ugly": "\\\\topbot",
                    "pretty": "⌶",
                    "post": "\\b|_"
                },
                {
                    "ugly": "\\\\wedge",
                    "pretty": "∧",
                    "post": "\\b|_"
                },
                {
                    "ugly": "\\\\vee",
                    "pretty": "∨",
                    "post": "\\b|_"
                },
                {
                    "ugly": "\\\\cup",
                    "pretty": "∪",
                    "post": "\\b|_"
                },
                {
                    "ugly": "\\\\cap",
                    "pretty": "∩",
                    "post": "\\b|_"
                },
                {
                    "ugly": "\\\\otimes",
                    "pretty": "⊗",
                    "post": "\\b|_"
                },
                {
                    "ugly": "\\\\bigotimes",
                    "pretty": "⊗",
                    "post": "\\b|_"
                },
                {
                    "ugly": "\\\\oplus",
                    "pretty": "⊕",
                    "post": "\\b|_"
                },
                {
                    "ugly": "\\\\bigoplus",
                    "pretty": "⊕",
                    "post": "\\b|_"
                },
                {
                    "ugly": "\\\\ominus",
                    "pretty": "⊖",
                    "post": "\\b|_"
                },
                {
                    "ugly": "\\\\oslash",
                    "pretty": "⊘",
                    "post": "\\b|_"
                },
                {
                    "ugly": "\\\\neg",
                    "pretty": "¬",
                    "post": "\\b|_"
                },
                {
                    "ugly": "\\\\forall",
                    "pretty": "∀",
                    "post": "\\b|_"
                },
                {
                    "ugly": "\\\\exists",
                    "pretty": "∃",
                    "post": "\\b|_"
                },
                {
                    "ugly": "\\\\nexists",
                    "pretty": "∄",
                    "post": "\\b|_"
                },
                {
                    "ugly": "\\\\b|_ecause",
                    "pretty": "∵",
                    "post": "\\b|_"
                },
                {
                    "ugly": "\\\\therefore",
                    "pretty": "∴",
                    "post": "\\b|_"
                },
                {
                    "ugly": "\\\\neq",
                    "pretty": "≠"
                    // "post": "\\b|_"
                },
                {
                    "ugly": "\\\\equiv",
                    "pretty": "≡",
                    "post": "\\b|_"
                },
                {
                    "ugly": "\\\\mapsto",
                    "pretty": "↦",
                    "post": "\\b|_"
                },
                {
                    "ugly": "\\\\mapsfrom",
                    "pretty": "↤",
                    "post": "\\b|_"
                },
                {
                    "ugly": "\\\\Mapsto",
                    "pretty": "⤇",
                    "post": "\\b|_"
                },
                {
                    "ugly": "\\\\Mapsfrom",
                    "pretty": "⤆",
                    "post": "\\b|_"
                },
                {
                    "ugly": "\\\\longmapsto",
                    "pretty": "⟼",
                    "post": "\\b|_"
                },
                {
                    "ugly": "\\\\mapsfrom",
                    "pretty": "⟻",
                    "post": "\\b|_"
                },
                {
                    "ugly": "\\\\Longmapsto",
                    "pretty": "⟾",
                    "post": "\\b|_"
                },
                {
                    "ugly": "\\\\Longmapsfrom",
                    "pretty": "⟽",
                    "post": "\\b|_"
                },
                {
                    "ugly": "\\\\leftarrow",
                    "pretty": "←",
                    "post": "\\b|_"
                },
                {
                    "ugly": "\\\\rightarrow",
                    "pretty": "→",
                    "post": "\\b|_"
                },
                {
                    "ugly": "\\\\to",
                    "pretty": "→",
                    "post": "\\b|_"
                },
                {
                    "ugly": "\\\\leftrightarrow",
                    "pretty": "↔",
                    "post": "\\b|_"
                },
                {
                    "ugly": "\\\\Leftarrow",
                    "pretty": "⇐",
                    "post": "\\b|_"
                },
                {
                    "ugly": "\\\\Rightarrow",
                    "pretty": "⇒",
                    "post": "\\b|_"
                },
                {
                    "ugly": "\\\\Leftrightarrow",
                    "pretty": "⇔",
                    "post": "\\b|_"
                },
                {
                    "ugly": "\\\\longleftarrow",
                    "pretty": "⟵",
                    "post": "\\b|_"
                },
                {
                    "ugly": "\\\\longrightarrow",
                    "pretty": "⟶",
                    "post": "\\b|_"
                },
                {
                    "ugly": "\\\\longleftrightarrow",
                    "pretty": "⟷",
                    "post": "\\b|_"
                },
                {
                    "ugly": "\\\\Longrightarrow",
                    "pretty": "⟹",
                    "post": "\\b|_"
                },
                {
                    "ugly": "\\\\implies",
                    "pretty": "⟹",
                    "post": "\\b|_"
                },
                {
                    "ugly": "\\\\Longleftarrow",
                    "pretty": "⟸",
                    "post": "\\b|_"
                },
                {
                    "ugly": "\\\\impliedby",
                    "pretty": "⟸",
                    "post": "\\b|_"
                },
                {
                    "ugly": "\\\\Longleftrightarrow",
                    "pretty": "⟺",
                    "post": "\\b|_"
                },
                {
                    "ugly": "\\\\iff",
                    "pretty": "⟺",
                    "post": "\\b|_"
                },
                {
                    "ugly": "\\\\in",
                    "pretty": "∈",
                    "post": "\\b|_"
                },
                {
                    "ugly": "\\\\notin",
                    "pretty": "∉",
                    "post": "\\b|_"
                },
                {
                    "ugly": "\\\\pm",
                    "pretty": "±",
                    "post": "\\b|_"
                },
                {
                    "ugly": "\\\\times",
                    "pretty": "×",
                    "post": "\\b|_"
                },
                {
                    "ugly": "\\\\infty",
                    "pretty": "∞",
                    "post": "\\b|_"
                },
                {
                    "ugly": "\\\\sum",
                    "pretty": "∑",
                    "post": "\\b|_"
                },
                {
                    "ugly": "\\\\prod",
                    "pretty": "∏",
                    "post": "\\b|_"
                },
                {
                    "ugly": "\\\\int",
                    "pretty": "∫",
                    "post": "\\b|_"
                },
                {
                    "ugly": "\\\\intop",
                    "pretty": "∫",
                    "post": "\\b|_"
                },
                {
                    "ugly": "\\\\iint",
                    "pretty": "∬",
                    "post": "\\b|_"
                },
                {
                    "ugly": "\\\\iiint",
                    "pretty": "∭",
                    "post": "\\b|_"
                },
                {
                    "ugly": "\\\\oint",
                    "pretty": "∮",
                    "post": "\\b|_"
                },
                {
                    "ugly": "\\\\oiint",
                    "pretty": "∯",
                    "post": "\\b|_"
                },
                {
                    "ugly": "\\\\oiiint",
                    "pretty": "∰",
                    "post": "\\b|_"
                },
                {
                    "ugly": "\\\\Gamma",
                    "pretty": "Γ",
                    "post": "\\b|_"
                },
                {
                    "ugly": "\\\\Delta",
                    "pretty": "Δ",
                    "post": "\\b|_"
                },
                {
                    "ugly": "\\\\Theta",
                    "pretty": "Θ",
                    "post": "\\b|_"
                },
                {
                    "ugly": "\\\\Lambda",
                    "pretty": "Λ",
                    "post": "\\b|_"
                },
                {
                    "ugly": "\\\\Xi",
                    "pretty": "Ξ",
                    "post": "\\b|_"
                },
                {
                    "ugly": "\\\\Pi",
                    "pretty": "Π",
                    "post": "\\b|_"
                },
                {
                    "ugly": "\\\\Sigma",
                    "pretty": "Σ",
                    "post": "\\b|_"
                },
                {
                    "ugly": "\\\\Upsilon",
                    "pretty": "Υ",
                    "post": "\\b|_"
                },
                {
                    "ugly": "\\\\Phi",
                    "pretty": "Φ",
                    "post": "\\b|_"
                },
                {
                    "ugly": "\\\\Psi",
                    "pretty": "Ψ",
                    "post": "\\b|_"
                },
                {
                    "ugly": "\\\\Omega",
                    "pretty": "Ω",
                    "post": "\\b|_"
                },
                {
                    "ugly": "\\\\alpha",
                    "pretty": "α",
                    "post": "\\b|_"
                },
                {
                    "ugly": "\\\\b|_eta",
                    "pretty": "β",
                    "post": "\\b|_"
                },
                {
                    "ugly": "\\\\gamma",
                    "pretty": "γ",
                    "post": "\\b|_"
                },
                {
                    "ugly": "\\\\delta",
                    "pretty": "δ",
                    "post": "\\b|_"
                },
                {
                    "ugly": "\\\\epsilon",
                    "pretty": "ε",
                    "post": "\\b|_"
                },
                {
                    "ugly": "\\\\zeta",
                    "pretty": "ζ",
                    "post": "\\b|_"
                },
                {
                    "ugly": "\\\\eta",
                    "pretty": "η",
                    "post": "\\b|_"
                },
                {
                    "ugly": "\\\\theta",
                    "pretty": "θ",
                    "post": "\\b|_"
                },
                {
                    "ugly": "\\\\iota",
                    "pretty": "ι",
                    "post": "\\b|_"
                },
                {
                    "ugly": "\\\\kappa",
                    "pretty": "κ",
                    "post": "\\b|_"
                },
                {
                    "ugly": "\\\\lambda",
                    "pretty": "λ",
                    "post": "\\b|_"
                },
                {
                    "ugly": "\\\\mu",
                    "pretty": "μ",
                    "post": "\\b|_"
                },
                {
                    "ugly": "\\\\nu",
                    "pretty": "ν",
                    "post": "\\b|_"
                },
                {
                    "ugly": "\\\\xi",
                    "pretty": "ξ",
                    "post": "\\b|_"
                },
                {
                    "ugly": "\\\\pi",
                    "pretty": "π",
                    "post": "\\b|_"
                },
                {
                    "ugly": "\\\\rho",
                    "pretty": "ρ",
                    "post": "\\b|_"
                },
                {
                    "ugly": "\\\\varsigma",
                    "pretty": "ς",
                    "post": "\\b|_"
                },
                {
                    "ugly": "\\\\sigma",
                    "pretty": "σ",
                    "post": "\\b|_"
                },
                {
                    "ugly": "\\\\tau",
                    "pretty": "τ",
                    "post": "\\b|_"
                },
                {
                    "ugly": "\\\\upsilon",
                    "pretty": "υ",
                    "post": "\\b|_"
                },
                {
                    "ugly": "\\\\phi",
                    "pretty": "ϕ",
                    "post": "\\b|_"
                },
                {
                    "ugly": "\\\\varphi",
                    "pretty": "φ",
                    "post": "\\b|_"
                },
                {
                    "ugly": "\\\\chi",
                    "pretty": "χ",
                    "post": "\\b|_"
                },
                {
                    "ugly": "\\\\psi",
                    "pretty": "ψ",
                    "post": "\\b|_"
                },
                {
                    "ugly": "\\\\omega",
                    "pretty": "ω",
                    "post": "\\b|_"
                },
                {
                    "ugly": "\\\\mathbb{A}",
                    "pretty": "𝔸"
                },
                {
                    "ugly": "\\\\mathbb{B}",
                    "pretty": "𝔹"
                },
                {
                    "ugly": "\\\\mathbb{C}",
                    "pretty": "ℂ"
                },
                {
                    "ugly": "\\\\mathbb{D}",
                    "pretty": "𝔻"
                },
                {
                    "ugly": "\\\\mathbb{E}",
                    "pretty": "𝔼"
                },
                {
                    "ugly": "\\\\mathbb{F}",
                    "pretty": "𝔽"
                },
                {
                    "ugly": "\\\\mathbb{G}",
                    "pretty": "𝔾"
                },
                {
                    "ugly": "\\\\mathbb{H}",
                    "pretty": "ℍ"
                },
                {
                    "ugly": "\\\\mathbb{I}",
                    "pretty": "𝕀"
                },
                {
                    "ugly": "\\\\mathbb{J}",
                    "pretty": "𝕁"
                },
                {
                    "ugly": "\\\\mathbb{K}",
                    "pretty": "𝕂"
                },
                {
                    "ugly": "\\\\mathbb{L}",
                    "pretty": "𝕃"
                },
                {
                    "ugly": "\\\\mathbb{M}",
                    "pretty": "𝕄"
                },
                {
                    "ugly": "\\\\mathbb{N}",
                    "pretty": "ℕ"
                },
                {
                    "ugly": "\\\\mathbb{O}",
                    "pretty": "𝕆"
                },
                {
                    "ugly": "\\\\mathbb{P}",
                    "pretty": "ℙ"
                },
                {
                    "ugly": "\\\\mathbb{Q}",
                    "pretty": "ℚ"
                },
                {
                    "ugly": "\\\\mathbb{R}",
                    "pretty": "ℝ"
                },
                {
                    "ugly": "\\\\mathbb{S}",
                    "pretty": "𝕊"
                },
                {
                    "ugly": "\\\\mathbb{T}",
                    "pretty": "𝕋"
                },
                {
                    "ugly": "\\\\mathbb{U}",
                    "pretty": "𝕌"
                },
                {
                    "ugly": "\\\\mathbb{V}",
                    "pretty": "𝕍"
                },
                {
                    "ugly": "\\\\mathbb{W}",
                    "pretty": "𝕎"
                },
                {
                    "ugly": "\\\\mathbb{X}",
                    "pretty": "𝕏"
                },
                {
                    "ugly": "\\\\mathbb{Y}",
                    "pretty": "𝕐"
                },
                {
                    "ugly": "\\\\mathbb{Z}",
                    "pretty": "ℤ"
                },
                {
                    "ugly": "\\\\mathbb{a}",
                    "pretty": "𝕒"
                },
                {
                    "ugly": "\\\\mathbb{b}",
                    "pretty": "𝕓"
                },
                {
                    "ugly": "\\\\mathbb{c}",
                    "pretty": "𝕔"
                },
                {
                    "ugly": "\\\\mathbb{d}",
                    "pretty": "𝕕"
                },
                {
                    "ugly": "\\\\mathbb{e}",
                    "pretty": "𝕖"
                },
                {
                    "ugly": "\\\\mathbb{f}",
                    "pretty": "𝕗"
                },
                {
                    "ugly": "\\\\mathbb{g}",
                    "pretty": "𝕘"
                },
                {
                    "ugly": "\\\\mathbb{h}",
                    "pretty": "𝕙"
                },
                {
                    "ugly": "\\\\mathbb{i}",
                    "pretty": "𝕚"
                },
                {
                    "ugly": "\\\\mathbb{j}",
                    "pretty": "𝕛"
                },
                {
                    "ugly": "\\\\mathbb{k}",
                    "pretty": "𝕜"
                },
                {
                    "ugly": "\\\\mathbb{l}",
                    "pretty": "𝕝"
                },
                {
                    "ugly": "\\\\mathbb{m}",
                    "pretty": "𝕞"
                },
                {
                    "ugly": "\\\\mathbb{n}",
                    "pretty": "𝕟"
                },
                {
                    "ugly": "\\\\mathbb{o}",
                    "pretty": "𝕠"
                },
                {
                    "ugly": "\\\\mathbb{p}",
                    "pretty": "𝕡"
                },
                {
                    "ugly": "\\\\mathbb{q}",
                    "pretty": "𝕢"
                },
                {
                    "ugly": "\\\\mathbb{r}",
                    "pretty": "𝕣"
                },
                {
                    "ugly": "\\\\mathbb{s}",
                    "pretty": "𝕤"
                },
                {
                    "ugly": "\\\\mathbb{t}",
                    "pretty": "𝕥"
                },
                {
                    "ugly": "\\\\mathbb{u}",
                    "pretty": "𝕦"
                },
                {
                    "ugly": "\\\\mathbb{v}",
                    "pretty": "𝕧"
                },
                {
                    "ugly": "\\\\mathbb{w}",
                    "pretty": "𝕨"
                },
                {
                    "ugly": "\\\\mathbb{x}",
                    "pretty": "𝕩"
                },
                {
                    "ugly": "\\\\mathbb{y}",
                    "pretty": "𝕪"
                },
                {
                    "ugly": "\\\\mathbb{z}",
                    "pretty": "𝕫"
                },
                // CUSTOM
                {
                    "ugly": "\\\\left\\[",
                    "pretty": "⟦"
                },
                {
                    "ugly": "\\\\right\\]",
                    "pretty": "⟧"
                },
                {
                    "ugly": "\\\\left\\(",
                    "pretty": "⟮"
                },
                {
                    "ugly": "\\\\right\\)",
                    "pretty": "⟯"
                },
                {
                    "ugly": "\\\\left\\\\\\{",
                    "pretty": "⦃"
                },
                {
                    "ugly": "\\\\right\\\\\\}",
                    "pretty": "⦄"
                },
                {
                    "ugly": "\\\\left\\\\lVert\\ ?",
                    "pretty": "∥",
                    "post": "\\b|_"
                },
                {
                    "ugly": "\\\\right\\\\rVert\\ ?",
                    "pretty": "∥",
                    "post": "\\b|_"
                },
                {
                    "ugly": "\\\\left\\\\Vert\\ ?",
                    "pretty": "∥",
                    "post": "\\b|_"
                },
                {
                    "ugly": "\\\\right\\\\Vert\\ ?",
                    "pretty": "∥",
                    "post": "\\b|_"
                },
                {
                    "ugly": "\\\\left\\\\vert\\ ?",
                    "pretty": "|",
                    "post": "\\b|_"
                },
                {
                    "ugly": "\\\\right\\\\vert\\ ?",
                    "pretty": "|",
                    "post": "\\b|_"
                },
                {
                    "ugly": "\\\\left\\|",
                    "pretty": "|"
                },
                {
                    "ugly": "\\\\middle\\|",
                    "pretty": "|"
                },
                {
                    "ugly": "\\\\right\\|",
                    "pretty": "|"
                },
                {
                    "ugly": "\\\\left\\\\langle\\ ?",
                    "pretty": "⟨",
                    "post": "\\b|_"
                },
                {
                    "ugly": "\\\\right\\\\rangle\\ ?",
                    "pretty": "⟩",
                    "post": "\\b|_"
                },
                {
                    "ugly": "\\\\vert\\ ?",
                    "pretty": "|",
                    "post": "\\b|_"
                },
                {
                    "ugly": "\\\\vert\\ ?",
                    "pretty": "|",
                    "post": "\\b|_"
                },
                {
                    "ugly": "\\\\lVert\\ ?",
                    "pretty": "∥",
                    "post": "\\b|_"
                },
                {
                    "ugly": "\\\\rVert\\ ?",
                    "pretty": "∥",
                    "post": "\\b|_"
                },
                {
                    "ugly": "\\\\Vert\\ ?",
                    "pretty": "∥",
                    "post": "\\b|_"
                },
                {
                    "ugly": "\\\\Vert\\ ?",
                    "pretty": "∥",
                    "post": "\\b|_"
                },
                {
                    "ugly": "\\\\langle\\ ?",
                    "pretty": "⟨",
                    "post": "\\b|_"
                },
                {
                    "ugly": "\\\\rangle\\ ?",
                    "pretty": "⟩",
                    "post": "\\b|_"
                },
                {
                    "ugly": "\\\\lim",
                    "pretty": "lim",
                    "post": "\\b|_"
                },
                {
                    "ugly": "\\\\min",
                    "pretty": "min",
                    "post": "\\b|_"
                },
                {
                    "ugly": "\\\\max",
                    "pretty": "max",
                    "post": "\\b|_"
                },
                {
                    "ugly": "\\\\argmin",
                    "pretty": "argmin",
                    "post": "\\b|_"
                },
                {
                    "ugly": "\\\\argmax",
                    "pretty": "argmax",
                    "post": "\\b|_"
                },
                {
                    "ugly": "\\\\deg",
                    "pretty": "deg",
                    "post": "\\b|_"
                },
                {
                    "ugly": "\\\\exp",
                    "pretty": "exp",
                    "post": "\\b|_"
                },
                {
                    "ugly": "\\\\mod",
                    "pretty": "mod",
                    "post": "\\b|_"
                },
                {
                    "ugly": "\\\\log",
                    "pretty": "log",
                    "post": "\\b|_"
                },
                {
                    "ugly": "\\\\sin",
                    "pretty": "sin",
                    "post": "\\b|_"
                },
                {
                    "ugly": "\\\\cos",
                    "pretty": "cos",
                    "post": "\\b|_"
                },
                {
                    "ugly": "\\\\tan",
                    "pretty": "tan",
                    "post": "\\b|_"
                },
                {
                    "ugly": "\\\\sim",
                    "pretty": "~",
                    "post": "\\b|_"
                },
                {
                    "ugly": "\\\\varointclockwise",
                    "pretty": "∲",
                    "post": "\\b|_"
                },
                {
                    "ugly": "\\\\ointctrclockwise",
                    "pretty": "∳",
                    "post": "\\b|_"
                },
                {
                    "ugly": "\\\\iiiint",
                    "pretty": "⨌",
                    "post": "\\b|_"
                },
                {
                    "ugly": "\\\\approx",
                    "pretty": "≈",
                    "post": "\\b"
                },
                {
                    "ugly": "\\\\gg",
                    "pretty": "≫",
                    "post": "\\b|_"
                },
                {
                    "ugly": "\\\\ll",
                    "pretty": "≪",
                    "post": "\\b|_"
                },
                {
                    "ugly": "\\\\sqrt",
                    "pretty": "√",
                    "post": "\\b"
                },
                {
                    "ugly": "\\\\propto",
                    "pretty": "∝",
                    "post": "\\b"
                },
                {
                    "ugly": "\\\\hbar",
                    "pretty": "ℏ",
                    "post": "\\b|_"
                },
                {
                    "ugly": "\\\\ell",
                    "pretty": "ℓ",
                    "post": "\\b|_"
                },
                {
                    "ugly": "\\\\cdot",
                    "pretty": "·",
                    "post": "\\b|_"
                },
                {
                    "ugly": "\\\\subset",
                    "pretty": "⊂",
                    "post": "\\b|_"
                },
                {
                    "ugly": "\\\\subseteq",
                    "pretty": "⊆",
                    "post": "\\b|_"
                },
                {
                    "ugly": "\\\\supset",
                    "pretty": "⊃",
                    "post": "\\b|_"
                },
                {
                    "ugly": "\\\\supseteq",
                    "pretty": "⊇",
                    "post": "\\b|_"
                },
                {
                    "ugly": "\\\\dots",
                    "pretty": "…",
                    "post": "\\b|_"
                },
                {
                    "ugly": "_{i\\}",
                    "pretty": "ᵢ"
                },
                {
                    "ugly": "_i",
                    "pretty": "ᵢ"
                },
                {
                    "ugly": "_{n\\}",
                    "pretty": "ₙ"
                },
                {
                    "ugly": "_n",
                    "pretty": "ₙ"
                },
                {
                    "ugly": "_{j\\}",
                    "pretty": "ⱼ"
                },
                {
                    "ugly": "_j",
                    "pretty": "ⱼ"
                },
                {
                    "ugly": "_{k\\}",
                    "pretty": "ₖ"
                },
                {
                    "ugly": "_k",
                    "pretty": "ₖ"
                },
                {
                    "ugly": "_{0\\}",
                    "pretty": "₀"
                },
                {
                    "ugly": "_0",
                    "pretty": "₀"
                },
                {
                    "ugly": "_{1\\}",
                    "pretty": "₁"
                },
                {
                    "ugly": "_1",
                    "pretty": "₁"
                },
                {
                    "ugly": "_{2\\}",
                    "pretty": "₂"
                },
                {
                    "ugly": "_2",
                    "pretty": "₂"
                },
                {
                    "ugly": "_{3\\}",
                    "pretty": "₃"
                },
                {
                    "ugly": "_3",
                    "pretty": "₃"
                }
            ]
        }
    ],
    "julia.environmentPath": "/mnt/c/Users/Omry Cohen/OneDrive/Documents/Academy/University/MasterMath/CommutativeAlgebraAndAlgebraicGeometry"
}
